Node List:  titanic-5
jobID:  243491
Partition:  titanic
submit directory: /home/tau/mverbock/thesis/CIFAR100
submit host: titanic-master
In the directory: pwd
As the user: whoami
current directory : /home/tau/mverbock/thesis/CIFAR100
cuda device : True
path : results/TINY/1soixantequatre_tbadd_0.25/1/
Acc test : 0.6335487997531891 Acc train : 0.9935747051239013 lr : 0.01
Acc test : 0.6413085603713989 Acc train : 0.9957412171363831 lr : 0.01
Acc test : 0.6469663453102111 Acc train : 0.9962642776966095 lr : 0.01
Acc test : 0.6489018654823303 Acc train : 0.9976280152797699 lr : 0.01
Acc test : 0.6447332584857941 Acc train : 0.9980971717834473 lr : 0.01
Acc test : 0.6517288661003113 Acc train : 0.9983288288116455 lr : 0.01
Acc test : 0.6524348485469819 Acc train : 0.998598370552063 lr : 0.01
Acc test : 0.6507326221466064 Acc train : 0.9987061893939972 lr : 0.01
Acc test : 0.6473644125461578 Acc train : 0.9991913676261902 lr : 0.01
Acc test : 0.654334123134613 Acc train : 0.9988679146766662 lr : 0.01
Acc test : 0.653426364660263 Acc train : 0.9990296411514282 lr : 0.01
Acc test : 0.6574815201759339 Acc train : 0.9995148205757141 lr : 0.01
Acc test : 0.6547705733776092 Acc train : 0.9991753458976745 lr : 0.01
Acc test : 0.6578515756130219 Acc train : 0.9994987988471985 lr : 0.01
Acc test : 0.6555252885818481 Acc train : 0.9994987988471985 lr : 0.01
Acc test : 0.6576022803783417 Acc train : 0.9994070029258728 lr : 0.01
Acc test : 0.6609752070903778 Acc train : 0.9998921823501586 lr : 0.01
Acc test : 0.6624281442165375 Acc train : 0.9995148205757141 lr : 0.01
Acc test : 0.661527236700058 Acc train : 0.9995687294006348 lr : 0.01
Acc test : 0.6630168747901917 Acc train : 0.9997304558753968 lr : 0.01
Acc test : 0.6636607313156128 Acc train : 0.999676547050476 lr : 0.01
Acc test : 0.663439918756485 Acc train : 0.9998921823501586 lr : 0.01
Acc test : 0.6667438638210297 Acc train : 0.9997304558753968 lr : 0.01
Acc test : 0.6668512248992919 Acc train : 0.999676547050476 lr : 0.01
Acc test : 0.6643201160430908 Acc train : 0.9998921823501586 lr : 0.01
Acc test : 0.66684650182724 Acc train : 0.9997843647003174 lr : 0.01
Acc test : 0.6695518171787262 Acc train : 0.9997843647003174 lr : 0.01
Acc test : 0.6667973113059997 Acc train : 0.9998921823501586 lr : 0.01
Acc test : 0.6681532454490662 Acc train : 0.9997843647003174 lr : 0.01
Acc test : 0.6670134055614472 Acc train : 0.9999460911750794 lr : 0.01
Acc test : 0.6691127824783325 Acc train : 0.999838273525238 lr : 0.01
Acc test : 0.6727863204479217 Acc train : 0.9997843647003174 lr : 0.01
Acc test : 0.6714442420005798 Acc train : 0.9999460911750794 lr : 0.01
Acc test : 0.6739447402954102 Acc train : 0.9997843658924103 lr : 0.01
Acc test : 0.6767190396785736 Acc train : 0.9999460911750794 lr : 0.01
Acc test : 0.6728484463691712 Acc train : 0.9997304558753968 lr : 0.01
Acc test : 0.6725068771839142 Acc train : 0.9998921823501586 lr : 0.01
Acc test : 0.6729791104793549 Acc train : 0.9998761606216431 lr : 0.01
Acc test : 0.6734233200550079 Acc train : 0.9998921823501586 lr : 0.01
Acc test : 0.6738541281223297 Acc train : 1.0 lr : 0.01
Acc test : 0.6741733157634735 Acc train : 0.9999460911750794 lr : 0.01
Acc test : 0.674339759349823 Acc train : 0.9999460911750794 lr : 0.01
Acc test : 0.6732025098800659 Acc train : 1.0 lr : 0.01
Acc test : 0.6771201539039612 Acc train : 1.0 lr : 0.01
Acc test : 0.6735798680782318 Acc train : 1.0 lr : 0.01
Acc test : 0.674031388759613 Acc train : 0.9997843647003174 lr : 0.01
Acc test : 0.6762058424949646 Acc train : 0.9998921823501586 lr : 0.01
Acc test : 0.6787727296352386 Acc train : 1.0 lr : 0.01
Acc test : 0.6802131831645966 Acc train : 1.0 lr : 0.01
Acc test : 0.6783932399749756 Acc train : 0.9998921823501586 lr : 0.01
Acc test : 0.6758233058452606 Acc train : 0.9998921823501586 lr : 0.01
Acc test : 0.677930908203125 Acc train : 0.999514821767807 lr : 0.01
Acc test : 0.6765448296070099 Acc train : 0.999838273525238 lr : 0.01
Acc test : 0.6768755841255188 Acc train : 1.0 lr : 0.01
Acc test : 0.6786011099815369 Acc train : 1.0 lr : 0.01
Acc test : 0.6784441041946411 Acc train : 0.9998921823501586 lr : 0.01
Acc test : 0.6785373044013977 Acc train : 1.0 lr : 0.01
Acc test : 0.6794558787345886 Acc train : 1.0 lr : 0.01
Acc test : 0.6785316681861877 Acc train : 0.9999460911750794 lr : 0.01
Acc test : 0.6792122232913971 Acc train : 1.0 lr : 0.01
Acc test : 0.6817204868793487 Acc train : 1.0 lr : 0.01
Acc test : 0.68331702709198 Acc train : 0.9999460911750794 lr : 0.01
Acc test : 0.6783548665046691 Acc train : 0.9999460911750794 lr : 0.01
Acc test : 0.679481760263443 Acc train : 0.9997843647003174 lr : 0.01
Acc test : 0.6797870898246765 Acc train : 0.9998921823501586 lr : 0.01
Acc test : 0.6823316025733948 Acc train : 1.0 lr : 0.01
Acc test : 0.682397540807724 Acc train : 0.9998921823501586 lr : 0.01
Acc test : 0.6807164788246155 Acc train : 0.9996605265140533 lr : 0.01
Acc test : 0.6815173387527466 Acc train : 1.0 lr : 0.01
Acc test : 0.6830703258514405 Acc train : 0.999838273525238 lr : 0.01
Acc test : 0.685129200220108 Acc train : 1.0 lr : 0.01
Acc test : 0.680239530801773 Acc train : 1.0 lr : 0.01
Acc test : 0.6862229013442993 Acc train : 0.9999460911750794 lr : 0.01
Acc test : 0.681340080499649 Acc train : 1.0 lr : 0.01
Acc test : 0.683699563741684 Acc train : 1.0 lr : 0.01
Acc test : 0.6840863609313965 Acc train : 1.0 lr : 0.01
Acc test : 0.6865433037281037 Acc train : 1.0 lr : 0.01
Acc test : 0.682837028503418 Acc train : 1.0 lr : 0.01
Acc test : 0.6840131092071533 Acc train : 1.0 lr : 0.01
Acc test : 0.6855371689796448 Acc train : 0.9999460911750794 lr : 0.01
Acc test : 0.6833480906486511 Acc train : 1.0 lr : 0.01
Acc test : 0.6817899239063263 Acc train : 1.0 lr : 0.01
Acc test : 0.6847160494327545 Acc train : 1.0 lr : 0.01
Acc test : 0.6815505373477936 Acc train : 1.0 lr : 0.01
Acc test : 0.6828007817268371 Acc train : 1.0 lr : 0.01
Acc test : 0.6852115833759308 Acc train : 1.0 lr : 0.01
Acc test : 0.6840945851802825 Acc train : 1.0 lr : 0.01
Acc test : 0.6839276850223541 Acc train : 0.9998601400852203 lr : 0.01
Acc test : 0.6846750843524932 Acc train : 1.0 lr : 0.01
Acc test : 0.6842489993572235 Acc train : 1.0 lr : 0.01
Acc test : 0.6838379907608032 Acc train : 1.0 lr : 0.01
Acc test : 0.6835507798194885 Acc train : 1.0 lr : 0.01
Acc test : 0.6863100028038025 Acc train : 0.9999460911750794 lr : 0.01
Acc test : 0.6867313742637634 Acc train : 1.0 lr : 0.01
Acc test : 0.6854474711418151 Acc train : 1.0 lr : 0.01
Acc test : 0.6858373177051544 Acc train : 1.0 lr : 0.01
Acc test : 0.6850416362285614 Acc train : 1.0 lr : 0.01
Acc test : 0.688946338891983 Acc train : 1.0 lr : 0.01
Acc test : 0.6832346403598786 Acc train : 1.0 lr : 0.01
Acc test : 0.6869361913204193 Acc train : 1.0 lr : 0.01
Acc test : 0.6862560963630676 Acc train : 1.0 lr : 0.01
Acc test : 0.6876094400882721 Acc train : 1.0 lr : 0.01
Acc test : 0.685506557226181 Acc train : 0.9999460911750794 lr : 0.01
Acc test : 0.6870315241813659 Acc train : 1.0 lr : 0.01
Acc test : 0.6837504208087921 Acc train : 0.999838273525238 lr : 0.01
Acc test : 0.6832122540473938 Acc train : 0.9998601400852203 lr : 0.01
Acc test : 0.6835938799381256 Acc train : 1.0 lr : 0.01
Acc test : 0.6857834076881408 Acc train : 0.9999460911750794 lr : 0.01
Acc test : 0.6854090929031372 Acc train : 1.0 lr : 0.01
Acc test : 0.6892775511741638 Acc train : 1.0 lr : 0.01
Acc test : 0.6894621229171753 Acc train : 1.0 lr : 0.01
Acc test : 0.6859870100021362 Acc train : 0.9999460911750794 lr : 0.01
Acc test : 0.6877810609340668 Acc train : 0.9999460911750794 lr : 0.01
Acc test : 0.6869853818416596 Acc train : 1.0 lr : 0.01
Acc test : 0.6860844731330872 Acc train : 1.0 lr : 0.01
Acc test : 0.6898187685012818 Acc train : 1.0 lr : 0.01
Acc test : 0.6864126455783844 Acc train : 1.0 lr : 0.01
Acc test : 0.6870673096179962 Acc train : 0.9999460911750794 lr : 0.01
Acc test : 0.6883973574638367 Acc train : 1.0 lr : 0.01
Acc test : 0.6915494692325592 Acc train : 1.0 lr : 0.01
Acc test : 0.6886513638496399 Acc train : 0.9999460911750794 lr : 0.01
Acc test : 0.688263646364212 Acc train : 1.0 lr : 0.01
Acc test : 0.6902427279949188 Acc train : 0.9999300694465637 lr : 0.01
Acc test : 0.6877344644069672 Acc train : 1.0 lr : 0.01
Acc test : 0.6906429266929627 Acc train : 1.0 lr : 0.01
Acc test : 0.6895065867900848 Acc train : 1.0 lr : 0.01
Acc test : 0.689259887933731 Acc train : 1.0 lr : 0.01
Acc test : 0.687446802854538 Acc train : 1.0 lr : 0.01
Acc test : 0.6885150671005249 Acc train : 1.0 lr : 0.01
Acc test : 0.6900835919380188 Acc train : 1.0 lr : 0.01
Acc test : 0.6881153237819672 Acc train : 1.0 lr : 0.01
Acc test : 0.6867973136901856 Acc train : 1.0 lr : 0.01
Acc test : 0.6863893461227417 Acc train : 1.0 lr : 0.01
Acc test : 0.6879246664047242 Acc train : 1.0 lr : 0.01
Acc test : 0.688022586107254 Acc train : 1.0 lr : 0.01
Acc test : 0.6910595738887787 Acc train : 1.0 lr : 0.01
Acc test : 0.6915986585617065 Acc train : 1.0 lr : 0.01
Acc test : 0.6891723251342774 Acc train : 0.9999460911750794 lr : 0.01
Acc test : 0.6899201846122742 Acc train : 1.0 lr : 0.01
Acc test : 0.6886487758159637 Acc train : 0.9999460911750794 lr : 0.01
Acc test : 0.6904152643680572 Acc train : 1.0 lr : 0.01
Acc test : 0.6925275874137878 Acc train : 1.0 lr : 0.01
Acc test : 0.6898787701129914 Acc train : 1.0 lr : 0.01
Acc test : 0.6908439457416534 Acc train : 1.0 lr : 0.01
Acc test : 0.6894211494922637 Acc train : 1.0 lr : 0.01
Acc test : 0.6890235424041748 Acc train : 1.0 lr : 0.01
Acc test : 0.6866412186622619 Acc train : 1.0 lr : 0.01
Acc test : 0.6841200196743011 Acc train : 0.9991374623775482 lr : 0.01
Acc test : 0.6875809621810913 Acc train : 0.9999460911750794 lr : 0.01
Acc test : 0.6884693825244903 Acc train : 1.0 lr : 0.01
Acc test : 0.6933077383041382 Acc train : 1.0 lr : 0.01
Acc test : 0.6898653662204742 Acc train : 1.0 lr : 0.01
Acc test : 0.692496521472931 Acc train : 1.0 lr : 0.01
Acc test : 0.6937109804153443 Acc train : 0.9999460911750794 lr : 0.01
Acc test : 0.6902970921993256 Acc train : 1.0 lr : 0.01
Acc test : 0.6913649010658264 Acc train : 1.0 lr : 0.01
Acc test : 0.6907848536968231 Acc train : 1.0 lr : 0.01
Acc test : 0.6929386031627655 Acc train : 1.0 lr : 0.01
Acc test : 0.6913515031337738 Acc train : 1.0 lr : 0.01
Acc test : 0.6914550495147705 Acc train : 0.9999460911750794 lr : 0.01
Acc test : 0.6913467860221862 Acc train : 1.0 lr : 0.01
Acc test : 0.6905588614940643 Acc train : 1.0 lr : 0.01
Acc test : 0.6912260222434997 Acc train : 1.0 lr : 0.01
Acc test : 0.6914753067493439 Acc train : 1.0 lr : 0.01
Acc test : 0.6905713474750519 Acc train : 1.0 lr : 0.01
Acc test : 0.6923201775550842 Acc train : 1.0 lr : 0.01
Acc test : 0.6883538007736206 Acc train : 1.0 lr : 0.01
Acc test : 0.6920558154582978 Acc train : 1.0 lr : 0.01
Acc test : 0.6907667374610901 Acc train : 1.0 lr : 0.01
Acc test : 0.6950513815879822 Acc train : 1.0 lr : 0.01
Acc test : 0.6924917960166931 Acc train : 1.0 lr : 0.01
Acc test : 0.6925996160507202 Acc train : 1.0 lr : 0.01
Acc test : 0.6883611118793488 Acc train : 1.0 lr : 0.01
Acc test : 0.6918142914772034 Acc train : 0.9999460911750794 lr : 0.01
Acc test : 0.6928281939029693 Acc train : 1.0 lr : 0.01
Acc test : 0.6911384606361389 Acc train : 1.0 lr : 0.01
Acc test : 0.6913618516921997 Acc train : 1.0 lr : 0.01
Acc test : 0.6942298114299774 Acc train : 1.0 lr : 0.01
Acc test : 0.6947201585769653 Acc train : 1.0 lr : 0.01
Acc test : 0.6909435343742371 Acc train : 1.0 lr : 0.01
Acc test : 0.6936493074893951 Acc train : 1.0 lr : 0.01
Acc test : 0.6916080963611603 Acc train : 1.0 lr : 0.01
Acc test : 0.692784184217453 Acc train : 1.0 lr : 0.01
Acc test : 0.6945553922653198 Acc train : 1.0 lr : 0.01
Acc test : 0.6931128144264221 Acc train : 1.0 lr : 0.01
Acc test : 0.6938886988162994 Acc train : 0.9999460911750794 lr : 0.01
Acc test : 0.6918983519077301 Acc train : 1.0 lr : 0.01
Acc test : 0.6901763331890106 Acc train : 1.0 lr : 0.01
Acc test : 0.6925789058208466 Acc train : 1.0 lr : 0.01
Acc test : 0.6953437685966491 Acc train : 1.0 lr : 0.01
Acc test : 0.6934440302848816 Acc train : 1.0 lr : 0.01
Acc test : 0.692142003774643 Acc train : 1.0 lr : 0.01
Acc test : 0.690247905254364 Acc train : 1.0 lr : 0.01
Acc test : 0.6932236731052399 Acc train : 1.0 lr : 0.01
Acc test : 0.6920424091815949 Acc train : 1.0 lr : 0.01
Acc test : 0.6932180428504944 Acc train : 1.0 lr : 0.01
Acc test : 0.6905920648574829 Acc train : 1.0 lr : 0.01
Acc test : 0.6903074443340301 Acc train : 0.9999460911750794 lr : 0.01
Acc test : 0.694442857503891 Acc train : 1.0 lr : 0.01
Acc test : 0.6911699795722961 Acc train : 1.0 lr : 0.01
Acc test : 0.6934979343414307 Acc train : 0.9999460911750794 lr : 0.01
Acc test : 0.6911876475811005 Acc train : 1.0 lr : 0.01
Acc test : 0.6902810978889465 Acc train : 1.0 lr : 0.01
Acc test : 0.6932258069515228 Acc train : 1.0 lr : 0.01
Acc test : 0.6937493562698365 Acc train : 1.0 lr : 0.01
Acc test : 0.6919087076187134 Acc train : 1.0 lr : 0.01
Acc test : 0.6929510879516602 Acc train : 1.0 lr : 0.01
Acc test : 0.689793336391449 Acc train : 1.0 lr : 0.01
Acc test : 0.6895833373069763 Acc train : 1.0 lr : 0.01
Acc test : 0.693290069103241 Acc train : 1.0 lr : 0.01
Acc test : 0.6940961050987243 Acc train : 1.0 lr : 0.01
Acc test : 0.6937493586540222 Acc train : 1.0 lr : 0.01
Acc test : 0.6938856494426727 Acc train : 1.0 lr : 0.01
Acc test : 0.6932102715969086 Acc train : 1.0 lr : 0.01
Acc test : 0.6911207985877991 Acc train : 1.0 lr : 0.01
Acc test : 0.6920273375511169 Acc train : 1.0 lr : 0.01
Acc test : 0.692519816160202 Acc train : 1.0 lr : 0.01
Acc test : 0.6958341205120087 Acc train : 1.0 lr : 0.01
Acc test : 0.6907641410827636 Acc train : 1.0 lr : 0.01
Acc test : 0.6934517931938171 Acc train : 0.9999460911750794 lr : 0.01
Acc test : 0.692784184217453 Acc train : 1.0 lr : 0.01
Acc test : 0.6914261221885681 Acc train : 0.9997843658924103 lr : 0.01
Acc test : 0.6918375945091247 Acc train : 1.0 lr : 0.01
Acc test : 0.6932719480991364 Acc train : 1.0 lr : 0.01
Acc test : 0.6945911765098571 Acc train : 1.0 lr : 0.01
Acc test : 0.691502867937088 Acc train : 1.0 lr : 0.01
Acc test : 0.6914670848846436 Acc train : 1.0 lr : 0.01
Acc test : 0.6927790081501007 Acc train : 1.0 lr : 0.01
Acc test : 0.6909922647476197 Acc train : 1.0 lr : 0.01
Acc test : 0.69192378282547 Acc train : 1.0 lr : 0.01
Acc test : 0.6915266263484955 Acc train : 1.0 lr : 0.01
Acc test : 0.6903509998321533 Acc train : 1.0 lr : 0.01
Acc test : 0.6873829960823059 Acc train : 0.9995687294006348 lr : 0.01
Acc test : 0.6889385712146759 Acc train : 1.0 lr : 0.01
Acc test : 0.6903044021129608 Acc train : 1.0 lr : 0.01
Acc test : 0.6907693183422089 Acc train : 1.0 lr : 0.01
Acc test : 0.6932206284999848 Acc train : 1.0 lr : 0.01
Acc test : 0.6899063348770141 Acc train : 1.0 lr : 0.01
Acc test : 0.6910897314548492 Acc train : 1.0 lr : 0.01
Acc test : 0.6924866235256195 Acc train : 1.0 lr : 0.01
Acc test : 0.690363940000534 Acc train : 1.0 lr : 0.01
Acc test : 0.6919216525554657 Acc train : 1.0 lr : 0.01
Acc test : 0.6936083388328552 Acc train : 1.0 lr : 0.01
Acc test : 0.6936829602718353 Acc train : 1.0 lr : 0.01
Acc test : 0.6943863582611084 Acc train : 1.0 lr : 0.01
Acc test : 0.6929230690002441 Acc train : 1.0 lr : 0.01
Acc test : 0.6938140761852264 Acc train : 1.0 lr : 0.01
Acc test : 0.6946942710876465 Acc train : 1.0 lr : 0.01
Acc test : 0.6932029676437378 Acc train : 1.0 lr : 0.01
