,vps0,vps1,vps2,depth_add,nbr_added_neuron,accroissement,portion_gain,nbr_parameters_apres,nbr_parameters_avant,T,len_L_tr,lu_conv,method,vps3,vps4,vps5,vps6,vps7,vps8,vps9,vps10,vps11,vps12,vps13,vps14,vps15,vps16,vps17,vps18,vps19,vps20,vps21,vps22,vps23
0,0.006627551279962063,0.005970675498247147,0.005340942647308111,2,3,0.0,1.0,3371981,3368516,0.0,0,0.001,Add,,,,,,,,,,,,,,,,,,,,,
0,0.004272814374417067,0.004101030994206667,0.0032922171521931887,4,3,0.0,1.0,3375446,3371981,25.142446041107178,379,0.001,Add,,,,,,,,,,,,,,,,,,,,,
0,0.014242158271372318,0.01112512219697237,0.010358130559325218,7,6,0.0,1.0,3389288,3375446,49.387985706329346,747,0.001,Add,0.009961281903088093,0.00940041895955801,0.008366314694285393,,,,,,,,,,,,,,,,,,
0,0.010878650471568108,0.010127568617463112,0.009733818471431732,9,6,0.0,1.0,3403130,3389288,73.13236236572266,1105,0.001,Add,0.008947683498263359,0.008364048786461353,0.007244379259645939,,,,,,,,,,,,,,,,,,
0,0.0323021337389946,0.029271764680743217,0.027251536026597023,12,12,0.0,1.0,3458462,3403130,96.10838603973389,1453,0.001,Add,0.026699138805270195,0.025085588917136192,0.02311328984797001,0.021366897970438004,0.0202791728079319,0.02005031146109104,0.017957555130124092,0.017084846273064613,0.015422389842569828,,,,,,,,,,,,
0,0.02867373265326023,0.025714995339512825,0.025060230866074562,14,12,0.0,1.0,3513794,3458462,118.3432412147522,1791,0.001,Add,0.022219505161046982,0.02202538400888443,0.020911123603582382,0.01884400099515915,0.01723128743469715,0.01629534177482128,0.014592466875910759,0.013928547501564026,0.013311220332980156,,,,,,,,,,,,
0,0.016650140285491943,0.016383303329348564,0.015320762991905212,17,24,0.0,1.0,3735050,3513794,140.22852683067322,2120,0.001,Add,0.013827896676957607,0.01305902749300003,0.012556101195514202,0.01167210191488266,0.011590089648962021,0.010675773955881596,0.01048264466226101,0.010064931586384773,0.009824083186686039,0.009471436962485313,0.009020591154694557,0.008754927664995193,0.008256800472736359,0.007907692342996597,0.007604717276990414,0.007354374043643475,0.007158161140978336,0.006972962059080601,0.006925406400114298,0.006846124306321144,0.0067545645870268345
0,0.010009776800870895,0.00944379810243845,0.009340599179267883,19,24,0.0,1.0,3956306,3735050,161.1064522266388,2433,0.001,Add,0.009134084917604923,0.0089297229424119,0.00875868834555149,0.008678223006427288,0.008485314436256886,0.008335164748132229,0.008162358775734901,0.008053907193243504,0.007918455637991428,0.007822169922292233,0.007653490174561739,0.00759553536772728,0.007550978101789951,0.007434208877384663,0.007315841503441334,0.007219407241791487,0.007051409687846899,0.006977430544793606,0.006916826590895653,0.0068539902567863464,0.006755158770829439
0,0.008571777492761612,0.007194044534116983,0.006687706336379051,2,3,0.0,1.0,3959771,3956306,182.46234679222107,2731,0.001,Add,,,,,,,,,,,,,,,,,,,,,
0,0.009105724282562733,0.006958041340112686,0.006605209782719612,4,3,0.0,1.0,3963236,3959771,206.5495994091034,3022,0.001,Add,,,,,,,,,,,,,,,,,,,,,
0,0.04316352307796478,0.03713289275765419,0.023108119145035744,7,6,0.0,1.0,3977078,3963236,229.61222553253174,3307,0.001,Add,0.021461395546793938,0.02000124752521515,0.017293009907007217,,,,,,,,,,,,,,,,,,
0,0.015149692073464394,0.013531561009585857,0.012616660445928574,9,6,0.0,1.0,3990920,3977078,252.61377930641174,3585,0.001,Add,0.011949633248150349,0.010979943908751011,0.010472829453647137,,,,,,,,,,,,,,,,,,
0,0.04518076777458191,0.0398724302649498,0.03726902976632118,12,12,0.0,1.0,4046252,3990920,274.0780539512634,3857,0.001,Add,0.03529588133096695,0.03410626947879791,0.03320269286632538,0.03153279051184654,0.030255986377596855,0.027447137981653214,0.027198798954486847,0.02613590657711029,0.0251927487552166,,,,,,,,,,,,
0,0.03866614028811455,0.03429514542222023,0.03268849104642868,14,12,0.0,1.0,4101584,4046252,296.0595579147339,4123,0.001,Add,0.031076831743121147,0.030081696808338165,0.0284676905721426,0.026439020410180092,0.025971127673983574,0.024485547095537186,0.022931965067982674,0.022041598334908485,0.0215409267693758,,,,,,,,,,,,
0,0.020278919488191605,0.018958833068609238,0.018450461328029633,17,24,0.0,1.0,4322840,4101584,318.3154716491699,4384,0.001,Add,0.01702115871012211,0.016170445829629898,0.015244788490235806,0.01490539126098156,0.01427067257463932,0.013847623020410538,0.013308518566191196,0.012919413857161999,0.012564681470394135,0.012235336005687714,0.012037433683872223,0.011347916908562183,0.010876914486289024,0.010302314534783363,0.010015980340540409,0.009727175347507,0.009443889372050762,0.00940706953406334,0.009023372083902359,0.0086511867120862,0.008435463532805443
0,0.009397262707352638,0.009087970480322838,0.00890769436955452,19,24,0.0,1.0,4544096,4322840,339.1632113456726,4635,0.001,Add,0.008544703014194965,0.008430966176092625,0.00830573309212923,0.007772144395858049,0.007711042650043964,0.007572670932859182,0.007472979370504618,0.00737515976652503,0.007240181788802147,0.007152794394642115,0.006986238062381744,0.006856091786175966,0.0068375784903764725,0.006761421449482441,0.006639844737946987,0.0066012488678097725,0.006503724958747625,0.0064361016266047955,0.00634800223633647,0.006172823254019022,0.0060564191080629826
0,0.009170635603368282,0.008855244144797325,0.008383436128497124,2,3,0.0,1.0,4547561,4544096,359.8532614707947,4876,0.001,Add,,,,,,,,,,,,,,,,,,,,,
0,0.011334827169775963,0.009872374124825,0.00869383942335844,4,3,0.0,1.0,4551026,4547561,382.36929416656494,5112,0.001,Add,,,,,,,,,,,,,,,,,,,,,
0,0.028566306456923485,0.0222911536693573,0.02123679593205452,7,6,0.0,1.0,4564868,4551026,404.27991223335266,5344,0.001,Add,0.01954631693661213,0.01816045306622982,0.017633462324738503,,,,,,,,,,,,,,,,,,
0,0.017976248636841774,0.015474280342459679,0.013315756805241108,9,6,0.0,1.0,4578710,4564868,425.3307099342346,5572,0.001,Add,0.012613286264240742,0.011568973772227764,0.01124946866184473,,,,,,,,,,,,,,,,,,
0,0.044098082929849625,0.03903462365269661,0.038580071181058884,12,12,0.0,1.0,4634042,4578710,446.5257773399353,5796,0.001,Add,0.037408359348773956,0.03585335984826088,0.034848883748054504,0.03365323320031166,0.033145830035209656,0.031771767884492874,0.030207140371203423,0.029409630224108696,0.02725372649729252,,,,,,,,,,,,
0,0.03942614048719406,0.0370556116104126,0.03513851389288902,14,12,0.0,1.0,4689374,4634042,467.2316391468048,6016,0.001,Add,0.03443630039691925,0.032038021832704544,0.030079128220677376,0.02826502174139023,0.027826635167002678,0.026517020538449287,0.02486366033554077,0.024819079786539078,0.02436799369752407,,,,,,,,,,,,
0,0.020458798855543137,0.020191142335534096,0.018547819927334785,17,24,0.0,1.0,4910630,4689374,487.7461712360382,6232,0.001,Add,0.018205659464001656,0.016363153234124184,0.015750907361507416,0.015351729467511177,0.014916517771780491,0.014463662169873714,0.01401207223534584,0.013841151259839535,0.013627728447318077,0.013324224390089512,0.01268435176461935,0.012470132671296597,0.01198439672589302,0.01165566872805357,0.011460456997156143,0.0113149993121624,0.010678163729608059,0.010417724959552288,0.010155024006962776,0.009936126880347729,0.00940475333482027
0,0.008433357812464237,0.008381305262446404,0.008165176026523113,19,24,0.0,1.0,5131886,4910630,507.1545181274414,6441,0.001,Add,0.007993249222636223,0.007780478335916996,0.007655852474272251,0.0075505818240344524,0.007311999797821045,0.007255082484334707,0.007073157001286745,0.006950533017516136,0.006939033046364784,0.006787403952330351,0.006715092342346907,0.006566040683537722,0.006382571533322334,0.006303153932094574,0.006281940266489983,0.006214444059878588,0.0060720499604940414,0.005949978716671467,0.005922169890254736,0.005811545066535473,0.0057820207439363
0,0.008896107785403728,0.008204163983464241,0.007589392829686403,2,3,0.0,1.0,5135351,5131886,526.2775852680206,6643,0.001,Add,,,,,,,,,,,,,,,,,,,,,
0,0.011133295483887196,0.009921199642121792,0.008541488088667393,4,3,0.0,1.0,5138816,5135351,548.0795478820801,6842,0.001,Add,,,,,,,,,,,,,,,,,,,,,
0,0.02833174355328083,0.023038487881422043,0.021196620538830757,7,6,0.0,1.0,5152658,5138816,569.2449059486389,7038,0.001,Add,0.020113950595259666,0.01827242597937584,0.017633795738220215,,,,,,,,,,,,,,,,,,
0,0.01903495192527771,0.017789635807275772,0.01602073386311531,9,6,0.0,1.0,5166500,5152658,590.0656139850616,7231,0.001,Add,0.014006083831191063,0.012782415375113487,0.01232180930674076,,,,,,,,,,,,,,,,,,
0,0.04574445262551308,0.04054509848356247,0.03979481756687164,12,12,0.0,1.0,5221832,5166500,611.3382167816162,7421,0.001,Add,0.035561226308345795,0.03517499566078186,0.03347250819206238,0.03190850093960762,0.031055184081196785,0.030491629615426064,0.02928142249584198,0.028931692242622375,0.02769499458372593,,,,,,,,,,,,
0,0.046210430562496185,0.043709009885787964,0.03883259370923042,14,12,0.0,1.0,5277164,5221832,631.8555519580841,7608,0.001,Add,0.03698037937283516,0.03515402972698212,0.033230435103178024,0.03280450031161308,0.030583186075091362,0.030106091871857643,0.029233237728476524,0.027822980657219887,0.02769913151860237,,,,,,,,,,,,
0,0.01945735514163971,0.018594443798065186,0.01795821636915207,17,24,0.0,1.0,5498420,5277164,651.474277973175,7792,0.001,Add,0.01704495958983898,0.016313163563609123,0.01603049226105213,0.015332021750509739,0.014714645221829414,0.014301079325377941,0.014251552522182465,0.013270378112792969,0.013176806271076202,0.01290221605449915,0.012572506442666054,0.012200268916785717,0.012030837126076221,0.011799458414316177,0.01141277514398098,0.011152117513120174,0.01099709514528513,0.010813750326633453,0.010243133641779423,0.010126029141247272,0.00980596523731947
0,0.008696961216628551,0.008367068134248257,0.007936221547424793,19,24,0.0,1.0,5719676,5498420,670.1226058006287,7971,0.001,Add,0.007688927464187145,0.00759262777864933,0.007381410803645849,0.007213881239295006,0.0070920344442129135,0.006876159925013781,0.006811957340687513,0.0066789439879357815,0.0066497609950602055,0.006519225891679525,0.006497844588011503,0.006255455315113068,0.006225189659744501,0.006153668276965618,0.006105357315391302,0.005977855529636145,0.0058736917562782764,0.005838379729539156,0.005781593266874552,0.005685652606189251,0.005659923888742924
0,0.008557191118597984,0.008016408421099186,0.007131190039217472,2,3,0.0,1.0,5723141,5719676,688.6106481552124,8145,0.001,Add,,,,,,,,,,,,,,,,,,,,,
0,0.012199998833239079,0.010109245777130127,0.009511263109743595,4,3,0.0,1.0,5726606,5723141,710.0155475139618,8317,0.001,Add,,,,,,,,,,,,,,,,,,,,,
0,0.021552540361881256,0.020054509863257408,0.018393736332654953,7,6,0.0,1.0,5740448,5726606,730.3642210960388,8486,0.001,Add,0.017283031716942787,0.01603490486741066,0.015489716082811356,,,,,,,,,,,,,,,,,,
0,0.017323104664683342,0.014870306476950645,0.014163167215883732,9,6,0.0,1.0,5754290,5740448,750.7259085178375,8653,0.001,Add,0.013524916023015976,0.012906658463180065,0.011981820687651634,,,,,,,,,,,,,,,,,,
0,0.04572179540991783,0.043167635798454285,0.040784697979688644,12,12,0.0,1.0,5809622,5754290,770.5509624481201,8818,0.001,Add,0.03921198099851608,0.03776085376739502,0.03638075292110443,0.033795129507780075,0.032955918461084366,0.031785544008016586,0.030884912237524986,0.030659470707178116,0.03036484494805336,,,,,,,,,,,,
0,0.043709225952625275,0.04101264104247093,0.037630945444107056,14,12,0.0,1.0,5864954,5809622,788.6161868572235,8981,0.001,Add,0.036825086921453476,0.03586503118276596,0.033979229629039764,0.03244549036026001,0.031089672818779945,0.03005278669297695,0.029271895065903664,0.0279017835855484,0.027424892410635948,,,,,,,,,,,,
0,0.020113451406359673,0.01894127018749714,0.018431207165122032,17,24,0.0,1.0,6086210,5864954,807.8542189598083,9142,0.001,Add,0.01693723164498806,0.016361676156520844,0.016048528254032135,0.01580575294792652,0.015348871238529682,0.0145083824172616,0.014060825109481812,0.013664948754012585,0.01358779426664114,0.013224784284830093,0.01307668536901474,0.012414484284818172,0.01217123307287693,0.011964741162955761,0.011467180214822292,0.011316768825054169,0.011170710436999798,0.010979271493852139,0.010865623131394386,0.01065925695002079,0.010116862133145332
0,0.008296727202832699,0.008114486932754517,0.00801161676645279,19,24,0.0,1.0,6307466,6086210,825.5316114425659,9299,0.001,Add,0.007741823792457581,0.007599123753607273,0.007354455534368753,0.007257533259689808,0.007075064815580845,0.006952345836907625,0.006810874678194523,0.006783841177821159,0.006533993873745203,0.0065296185202896595,0.006377072539180517,0.0062782070599496365,0.0061862887814641,0.006154265720397234,0.006079424172639847,0.005916163325309753,0.00588406715542078,0.005815966986119747,0.00574443070217967,0.005667566787451506,0.005649479106068611
0,0.00848268810659647,0.0077913133427500725,0.0072220927104353905,2,3,0.0,1.0,6310931,6307466,843.2605361938477,9452,0.001,Add,,,,,,,,,,,,,,,,,,,,,
0,0.009312462992966175,0.0091866385191679,0.008547239936888218,4,3,0.0,1.0,6314396,6310931,861.2783830165863,9603,0.001,Add,,,,,,,,,,,,,,,,,,,,,
0,0.02076757699251175,0.01808984763920307,0.017103958874940872,7,6,0.0,1.0,6328238,6314396,879.1921737194061,9752,0.001,Add,0.016349080950021744,0.014290675520896912,0.014199319295585155,,,,,,,,,,,,,,,,,,
0,0.0173313207924366,0.016949180513620377,0.015543253161013126,9,6,0.0,1.0,6342080,6328238,897.4474494457245,9900,0.001,Add,0.014869574457406998,0.014687729999423027,0.013210916891694069,,,,,,,,,,,,,,,,,,
0,0.044359542429447174,0.0403328537940979,0.03875571861863136,12,12,0.0,1.0,6397412,6342080,915.9745848178864,10046,0.001,Add,0.03718012571334839,0.03677653893828392,0.03470439091324806,0.033806659281253815,0.033704180270433426,0.03218971937894821,0.03158688172698021,0.029927002266049385,0.02941630594432354,,,,,,,,,,,,
0,0.04534563422203064,0.04380606487393379,0.040884293615818024,14,12,0.0,1.0,6452744,6397412,934.1817064285278,10190,0.001,Add,0.039824679493904114,0.038976460695266724,0.03593260422348976,0.034433118999004364,0.03297438099980354,0.03267531841993332,0.031279318034648895,0.029914570972323418,0.028876231983304024,,,,,,,,,,,,
0,0.021763600409030914,0.02044619806110859,0.018957223743200302,17,24,0.0,1.0,6674000,6452744,953.0506963729858,10333,0.001,Add,0.017561357468366623,0.01724041998386383,0.017007997259497643,0.016665123403072357,0.01620521955192089,0.015579985454678535,0.014966053888201714,0.014671233482658863,0.014349203556776047,0.013962382450699806,0.013710817322134972,0.013127636164426804,0.012809795327484608,0.012537898495793343,0.012180076912045479,0.012132864445447922,0.01188060361891985,0.011621138080954552,0.011491735465824604,0.010911151766777039,0.010819854214787483
0,0.00799931026995182,0.007840769365429878,0.007646308280527592,19,24,0.0,1.0,6895256,6674000,971.6348958015442,10472,0.001,Add,0.007510633207857609,0.007272166199982166,0.007148770149797201,0.0070635369047522545,0.006949279922991991,0.006859220564365387,0.006651442497968674,0.006577666383236647,0.00637860270217061,0.006281853187829256,0.006151224952191114,0.006023714318871498,0.005960609298199415,0.005846457555890083,0.005821402184665203,0.005742110777646303,0.005631932523101568,0.005569267086684704,0.0055084191262722015,0.005445471964776516,0.005375452805310488
0,0.007998176850378513,0.00781739316880703,0.00652377400547266,2,3,0.0,1.0,6898721,6895256,989.6154963970184,10608,0.001,Add,,,,,,,,,,,,,,,,,,,,,
0,0.011029399000108242,0.009260724298655987,0.007957086898386478,4,3,0.0,1.0,6902186,6898721,1007.7416024208069,10743,0.001,Add,,,,,,,,,,,,,,,,,,,,,
0,0.020464573055505753,0.018423913046717644,0.01792055368423462,7,6,0.0,1.0,6916028,6902186,1026.4213440418243,10876,0.001,Add,0.016691168770194054,0.015344016253948212,0.014902736060321331,,,,,,,,,,,,,,,,,,
0,0.01846599392592907,0.017605042085051537,0.016001546755433083,9,6,0.0,1.0,6929870,6916028,1045.35693693161,11008,0.001,Add,0.014886358752846718,0.014499413780868053,0.013724579475820065,,,,,,,,,,,,,,,,,,
0,0.04095979779958725,0.04021649435162544,0.03901005536317825,12,12,0.0,1.0,6985202,6929870,1063.954346895218,11139,0.001,Add,0.037151675671339035,0.035471972078084946,0.033706117421388626,0.03328835964202881,0.03192947432398796,0.030379751697182655,0.029373236000537872,0.029049955308437347,0.028195248916745186,,,,,,,,,,,,
0,0.04492730274796486,0.04377244785428047,0.04180102050304413,14,12,0.0,1.0,7040534,6985202,1083.7868101596832,11268,0.001,Add,0.03881976008415222,0.0378803089261055,0.03664659336209297,0.035477329045534134,0.034082237631082535,0.033152025192976,0.03234802931547165,0.03156198933720589,0.03091571107506752,,,,,,,,,,,,
0,0.02067974954843521,0.01977362670004368,0.019118867814540863,17,24,0.0,1.0,7261790,7040534,1103.2594194412231,11396,0.001,Add,0.0180867537856102,0.01749349571764469,0.017354855313897133,0.016099752858281136,0.015973610803484917,0.015449300408363342,0.015086797066032887,0.014838539995253086,0.014499351382255554,0.013945210725069046,0.0138443224132061,0.013740258291363716,0.01325656846165657,0.012723766267299652,0.012638300657272339,0.012409139424562454,0.01190162356942892,0.011643905192613602,0.01137964054942131,0.010926791466772556,0.010833906941115856
0,0.007653071545064449,0.007443214301019907,0.007240798324346542,19,24,0.0,1.0,7483046,7261790,1122.4042096138,11522,0.001,Add,0.007011666428297758,0.006935446988791227,0.006901782006025314,0.0068573360331356525,0.006758726201951504,0.006573247257620096,0.006494004745036364,0.006390351336449385,0.006222534459084272,0.006147935055196285,0.0060133920051157475,0.005955895874649286,0.005820658057928085,0.005759717430919409,0.005706882569938898,0.005660858936607838,0.005579163786023855,0.005423658061772585,0.005387677811086178,0.005347785539925098,0.00521938456222415
0,0.00851409137248993,0.007886617444455624,0.007245736662298441,2,3,0.0,1.0,7486511,7483046,1141.5892181396484,11645,0.001,Add,,,,,,,,,,,,,,,,,,,,,
0,0.009904487989842892,0.009566305205225945,0.007769818417727947,4,3,0.0,1.0,7489976,7486511,1161.0878565311432,11767,0.001,Add,,,,,,,,,,,,,,,,,,,,,
0,0.017381485551595688,0.01716540940105915,0.016278190538287163,7,6,0.0,1.0,7503818,7489976,1180.1403245925903,11888,0.001,Add,0.01486929040402174,0.01422332413494587,0.013060694560408592,,,,,,,,,,,,,,,,,,
0,0.017626242712140083,0.016890255734324455,0.01613118313252926,9,6,0.0,1.0,7517660,7503818,1199.842102766037,12008,0.001,Add,0.015415806323289871,0.014910979196429253,0.013441669754683971,,,,,,,,,,,,,,,,,,
0,0.04471813514828682,0.03765033185482025,0.03658519685268402,12,12,0.0,1.0,7572992,7517660,1219.5175449848175,12126,0.001,Add,0.03550484776496887,0.03365865722298622,0.032458413392305374,0.031573764979839325,0.030436400324106216,0.029263660311698914,0.029065167531371117,0.028876522555947304,0.027776086702942848,,,,,,,,,,,,
0,0.046695612370967865,0.04475435987114906,0.042775385081768036,14,12,0.0,1.0,7628324,7572992,1238.7089607715607,12243,0.001,Add,0.0407017283141613,0.04043428972363472,0.03843294829130173,0.037058304995298386,0.03606394678354263,0.035226304084062576,0.03453287482261658,0.032653648406267166,0.03248056769371033,,,,,,,,,,,,
0,0.01957334391772747,0.0194853488355875,0.018586833029985428,17,24,0.0,1.0,7849580,7628324,1257.6517405509949,12359,0.001,Add,0.018183935433626175,0.017877932637929916,0.016515059396624565,0.01612330600619316,0.015800217166543007,0.015307699330151081,0.015126521699130535,0.014252088963985443,0.013971153646707535,0.013849481008946896,0.013650605455040932,0.013235317543148994,0.013122985139489174,0.012822277843952179,0.012705313041806221,0.012263481505215168,0.01198980025947094,0.011768653057515621,0.011500862427055836,0.011134160682559013,0.010793015360832214
0,0.007657936308532953,0.00741563318297267,0.00723669258877635,19,24,0.0,1.0,8070836,7849580,1276.6421048641205,12473,0.001,Add,0.007063215598464012,0.006882922723889351,0.006855853833258152,0.006664162501692772,0.006570801138877869,0.006461265496909618,0.00630917539820075,0.0062787276692688465,0.00614643469452858,0.0060251811519265175,0.005888137500733137,0.005809845868498087,0.005768430884927511,0.00559733621776104,0.005577919539064169,0.005556527525186539,0.005447959527373314,0.005299977958202362,0.00525336479768157,0.0051692575216293335,0.005164603237062693
0,0.008724546991288662,0.007746214047074318,0.007308965548872948,2,3,0.0,1.0,8074301,8070836,1295.7766835689545,12585,0.001,Add,,,,,,,,,,,,,,,,,,,,,
0,0.00977286882698536,0.009136265143752098,0.007711778860539198,4,3,0.0,1.0,8077766,8074301,1315.190987586975,12696,0.001,Add,,,,,,,,,,,,,,,,,,,,,
0,0.017776446416974068,0.016364697366952896,0.015295245684683323,7,6,0.0,1.0,8091608,8077766,1333.8039338588715,12806,0.001,Add,0.015021543018519878,0.014470154419541359,0.013114100322127342,,,,,,,,,,,,,,,,,,
0,0.019829161465168,0.01644667237997055,0.01553884707391262,9,6,0.0,1.0,8105450,8091608,1354.2531433105469,12915,0.001,Add,0.014933012425899506,0.014496853575110435,0.01442237664014101,,,,,,,,,,,,,,,,,,
0,0.040232568979263306,0.03864601254463196,0.03656316176056862,12,12,0.0,1.0,8160782,8105450,1373.7388610839844,13023,0.001,Add,0.03476298600435257,0.03415347635746002,0.03276124596595764,0.031785380095243454,0.03130469471216202,0.030262207612395287,0.029844701290130615,0.02896745875477791,0.028250936418771744,,,,,,,,,,,,
0,0.04914465174078941,0.04596472159028053,0.042354289442300797,14,12,0.0,1.0,8216114,8160782,1393.6518840789795,13130,0.001,Add,0.04062867909669876,0.039971381425857544,0.03856969624757767,0.03714289516210556,0.03615142032504082,0.03369610011577606,0.033272918313741684,0.031570613384246826,0.031224383041262627,,,,,,,,,,,,
0,0.019584661349654198,0.01920885220170021,0.018587108701467514,17,24,0.0,1.0,8437370,8216114,1413.8427290916443,13236,0.001,Add,0.017764924094080925,0.017262427136301994,0.017058109864592552,0.01627505011856556,0.01576104946434498,0.015044953674077988,0.014874645508825779,0.014551263302564621,0.014200435020029545,0.013966423459351063,0.013714458793401718,0.013331789523363113,0.013024908490478992,0.01266244426369667,0.01234706025570631,0.012182769365608692,0.011691687628626823,0.011396311223506927,0.011269188486039639,0.010929565876722336,0.010730188339948654
0,0.006984819658100605,0.006872718688100576,0.006764190271496773,19,24,0.0,1.0,8658626,8437370,1433.195995092392,13341,0.001,Add,0.0066820550709962845,0.0066481418907642365,0.0064595830626785755,0.0062118894420564175,0.006126978434622288,0.006048655603080988,0.00602739816531539,0.005900759249925613,0.005829544272273779,0.005809389986097813,0.0056803845800459385,0.005568229127675295,0.0055189053528010845,0.005399955436587334,0.005291849374771118,0.005261631216853857,0.005159079097211361,0.005104165989905596,0.004966273903846741,0.004949084483087063,0.0048982491716742516
0,0.00806577317416668,0.0073825642466545105,0.006546424701809883,2,3,0.0,1.0,8662091,8658626,1453.0572447776794,13444,0.001,Add,,,,,,,,,,,,,,,,,,,,,
0,0.0105426711961627,0.0098421024158597,0.008911436423659325,4,3,0.0,1.0,8665556,8662091,1472.8554680347443,13546,0.001,Add,,,,,,,,,,,,,,,,,,,,,
0,0.017833713442087173,0.01705383136868477,0.0162726491689682,7,6,0.0,1.0,8679398,8665556,1492.986231803894,13647,0.001,Add,0.013957972638309002,0.013726205565035343,0.013257778249680996,,,,,,,,,,,,,,,,,,
0,0.019997064024209976,0.01591421850025654,0.015180731192231178,9,6,0.0,1.0,8693240,8679398,1513.4000220298767,13748,0.001,Add,0.01493099145591259,0.014024796895682812,0.013569648377597332,,,,,,,,,,,,,,,,,,
0,0.040845390409231186,0.03814834728837013,0.03478129953145981,12,12,0.0,1.0,8748572,8693240,1533.832490682602,13848,0.001,Add,0.033824510872364044,0.03293432667851448,0.032586850225925446,0.03175624832510948,0.03134496510028839,0.029097693040966988,0.027991434559226036,0.02768006920814514,0.026823893189430237,,,,,,,,,,,,
0,0.050856027752161026,0.047954265028238297,0.04651480168104172,14,12,0.0,1.0,8803904,8748572,1553.8364553451538,13947,0.001,Add,0.043955378234386444,0.04032853990793228,0.03879770264029503,0.038232240825891495,0.03760889917612076,0.03590138256549835,0.03502115607261658,0.03459134325385094,0.03356391191482544,,,,,,,,,,,,
0,0.01929713785648346,0.018926585093140602,0.018136367201805115,17,24,0.0,1.0,9025160,8803904,1573.61971449852,14045,0.001,Add,0.01786668971180916,0.016541602090001106,0.016253601759672165,0.01591884344816208,0.015522193163633347,0.014957774430513382,0.01480677630752325,0.014363855123519897,0.014173244126141071,0.013771126046776772,0.013592638075351715,0.013050843961536884,0.012844517827033997,0.012526312842965126,0.012381928972899914,0.012215880677103996,0.011735305190086365,0.01146768406033516,0.011311396956443787,0.011145137250423431,0.010816637426614761
0,0.007266733795404434,0.006873477250337601,0.006762563716620207,19,24,0.0,1.0,9246416,9025160,1593.2988529205322,14142,0.001,Add,0.006608982104808092,0.006577485706657171,0.006472345907241106,0.006360838655382395,0.006258381996303797,0.0061578042805194855,0.006084236316382885,0.006019780412316322,0.005804274696856737,0.0057141841389238834,0.005616605747491121,0.005479017738252878,0.005430363584309816,0.005311236251145601,0.005217947531491518,0.005201171152293682,0.005070521496236324,0.005034486297518015,0.004985997453331947,0.004917114973068237,0.004825957585126162
0,0.00803909171372652,0.007177155930548906,0.006562381982803345,2,3,0.0,1.0,9249881,9246416,1612.2346878051758,14237,0.001,Add,,,,,,,,,,,,,,,,,,,,,
0,0.011541514657437801,0.009434167295694351,0.008915451355278492,4,3,0.0,1.0,9253346,9249881,1633.862301826477,14331,0.001,Add,,,,,,,,,,,,,,,,,,,,,
0,0.01972459815442562,0.01933346875011921,0.018893390893936157,7,6,0.0,1.0,9267188,9253346,1655.1472058296204,14425,0.001,Add,0.01696896366775036,0.015634136274456978,0.015132061205804348,,,,,,,,,,,,,,,,,,
0,0.01760631427168846,0.015743497759103775,0.01519398856908083,9,6,0.0,1.0,9281030,9267188,1676.5021736621857,14518,0.001,Add,0.014522338286042213,0.013822287321090698,0.01309569738805294,,,,,,,,,,,,,,,,,,
0,0.04060513153672218,0.038351427763700485,0.03757862746715546,12,12,0.0,1.0,9336362,9281030,1697.847635269165,14610,0.001,Add,0.03543731942772865,0.03438287973403931,0.0327962189912796,0.031144727021455765,0.030326493084430695,0.029191473498940468,0.029036322608590126,0.028279392048716545,0.02698063850402832,,,,,,,,,,,,
0,0.05186290666460991,0.044811997562646866,0.04308009520173073,14,12,0.0,1.0,9391694,9336362,1718.8585288524628,14702,0.001,Add,0.040967702865600586,0.03961232304573059,0.038056354969739914,0.036859624087810516,0.03616267070174217,0.03537260740995407,0.034797847270965576,0.033825431019067764,0.03369126096367836,,,,,,,,,,,,
0,0.01889042928814888,0.018582690507173538,0.01799488253891468,17,24,0.0,1.0,9612950,9391694,1740.580991268158,14793,0.001,Add,0.01767212338745594,0.01683753915131092,0.016142893582582474,0.015524545684456825,0.015269024297595024,0.014788133092224598,0.014597451314330101,0.014031771570444107,0.013726110570132732,0.013596042059361935,0.013277496211230755,0.013046113774180412,0.01284682285040617,0.01245626900345087,0.012159192934632301,0.011941099539399147,0.011871946975588799,0.01129838265478611,0.011217460036277771,0.0109762167558074,0.010855814442038536
0,0.007115397602319717,0.0069088684394955635,0.006692772265523672,19,24,0.0,1.0,9834206,9612950,1760.872648715973,14883,0.001,Add,0.006508156191557646,0.00635859090834856,0.006191559601575136,0.006056065671145916,0.00595765421167016,0.005935386288911104,0.005799728445708752,0.005701809655874968,0.0056045143865048885,0.00554999802261591,0.005448970012366772,0.005380637943744659,0.00534657621756196,0.005222887732088566,0.005178113002330065,0.005098338238894939,0.005070901941508055,0.0050186775624752045,0.004888323601335287,0.004798866808414459,0.004765329882502556
0,0.007681929972022772,0.006707707419991493,0.00653016148135066,2,3,0.0,1.0,9837671,9834206,1781.2971632480621,14972,0.001,Add,,,,,,,,,,,,,,,,,,,,,
0,0.010893650352954865,0.009593743830919266,0.007901322096586227,4,3,0.0,1.0,9841136,9837671,1801.9885563850403,15060,0.001,Add,,,,,,,,,,,,,,,,,,,,,
0,0.0181460939347744,0.017010916024446487,0.01585339941084385,7,6,0.0,1.0,9854978,9841136,1822.3278276920319,15147,0.001,Add,0.015074677765369415,0.013991798274219036,0.013339429162442684,,,,,,,,,,,,,,,,,,
0,0.01717299036681652,0.016340717673301697,0.014468606561422348,9,6,0.0,1.0,9868820,9854978,1843.1800117492676,15234,0.001,Add,0.013692131265997887,0.01354802306741476,0.013097316026687622,,,,,,,,,,,,,,,,,,
0,0.04068426042795181,0.03839414194226265,0.03519470617175102,12,12,0.0,1.0,9924152,9868820,1864.6122431755066,15320,0.001,Add,0.03424464911222458,0.03318171575665474,0.03296290338039398,0.031167741864919662,0.03035680763423443,0.029192522168159485,0.028464164584875107,0.027928968891501427,0.02764984406530857,,,,,,,,,,,,
0,0.0471031591296196,0.04633660241961479,0.04378656670451164,14,12,0.0,1.0,9979484,9924152,1886.1003272533417,15406,0.001,Add,0.04269607365131378,0.040471065789461136,0.040059011429548264,0.0375334657728672,0.03671599179506302,0.03487479314208031,0.0339483916759491,0.03318500518798828,0.03271946683526039,,,,,,,,,,,,
0,0.018161727115511894,0.018048498779535294,0.01713503710925579,17,24,0.0,1.0,10200740,9979484,1906.776419878006,15491,0.001,Add,0.016672102734446526,0.016484003514051437,0.015537861734628677,0.015361019410192966,0.015126544050872326,0.014800116419792175,0.014148774556815624,0.013922392390668392,0.013847741298377514,0.013399233110249043,0.01334960013628006,0.01300065778195858,0.012221942655742168,0.011996877379715443,0.011855163611471653,0.011733160354197025,0.011674083769321442,0.011436410248279572,0.010740133933722973,0.010692463256418705,0.010511987842619419
0,0.006658005528151989,0.0064226118847727776,0.006370837800204754,19,24,0.0,1.0,10421996,10200740,1927.9990720748901,15575,0.001,Add,0.0062946742400527,0.006183922290802002,0.006109928246587515,0.0060227238573133945,0.005957477726042271,0.00572412321344018,0.0056577627547085285,0.005564928520470858,0.005410974845290184,0.005369954276829958,0.0052944873459637165,0.0052630044519901276,0.0051813009195029736,0.00512641342356801,0.005055416375398636,0.005012375768274069,0.004940001294016838,0.004789773840457201,0.004758106078952551,0.004604639019817114,0.004599252250045538
0,0.007028086576610804,0.006424723193049431,0.006114107556641102,2,3,0.0,1.0,10425461,10421996,1948.945951461792,15658,0.001,Add,,,,,,,,,,,,,,,,,,,,,
0,0.010968130081892014,0.010091172531247139,0.008698702789843082,4,3,0.0,1.0,10428926,10425461,1969.9826321601868,15740,0.001,Add,,,,,,,,,,,,,,,,,,,,,
0,0.02045605517923832,0.017100997269153595,0.01561996340751648,7,6,0.0,1.0,10442768,10428926,1991.125517129898,15822,0.001,Add,0.014711634255945683,0.014607793651521206,0.013700895942747593,,,,,,,,,,,,,,,,,,
0,0.017557531595230103,0.016069525852799416,0.015081978403031826,9,6,0.0,1.0,10456610,10442768,2012.9211988449097,15903,0.001,Add,0.01496449951082468,0.01408302877098322,0.013321121223270893,,,,,,,,,,,,,,,,,,
0,0.039273712784051895,0.03567666932940483,0.03409722447395325,12,12,0.0,1.0,10511942,10456610,2033.6710023880005,15984,0.001,Add,0.03356724977493286,0.03143874928355217,0.03084559738636017,0.03007965162396431,0.02892010472714901,0.028656449168920517,0.02824535220861435,0.02698662132024765,0.026827683672308922,,,,,,,,,,,,
0,0.05201464146375656,0.05018916726112366,0.04512648284435272,14,12,0.0,1.0,10567274,10511942,2054.8457159996033,16064,0.001,Add,0.04417771100997925,0.04264944791793823,0.04005410522222519,0.038738083094358444,0.037314221262931824,0.03678023815155029,0.036533281207084656,0.036203403025865555,0.035528216511011124,,,,,,,,,,,,
0,0.01783364824950695,0.017598573118448257,0.017201179638504982,17,24,0.0,1.0,10788530,10567274,2075.475205898285,16144,0.001,Add,0.016368653625249863,0.016023334115743637,0.015618919394910336,0.014794190414249897,0.014719869010150433,0.014499696902930737,0.01433739997446537,0.01379331573843956,0.013599460944533348,0.013238892890512943,0.01273021288216114,0.01249998714774847,0.012355828657746315,0.012058195658028126,0.011794592253863811,0.011676272377371788,0.011296137236058712,0.010948717594146729,0.01082244049757719,0.010478954762220383,0.010420028120279312
0,0.006684331689029932,0.006501201074570417,0.0061730570159852505,19,24,0.0,1.0,11009786,10788530,2095.9949476718903,16223,0.001,Add,0.006060351151973009,0.005944126285612583,0.005853352602571249,0.005808763671666384,0.005778586491942406,0.005518004298210144,0.005497264210134745,0.005400634836405516,0.005317702889442444,0.005273452494293451,0.005167177878320217,0.005054799374192953,0.0049623954109847546,0.0049158185720443726,0.004862673114985228,0.004806325770914555,0.0047599319368600845,0.004684831947088242,0.004597404971718788,0.004528698045760393,0.004466684069484472
0,0.007205773610621691,0.006248485296964645,0.005961144808679819,2,3,0.0,1.0,11013251,11009786,2116.332292318344,16301,0.001,Add,,,,,,,,,,,,,,,,,,,,,
0,0.011180943809449673,0.008950689807534218,0.008518070913851261,4,3,0.0,1.0,11016716,11013251,2137.336350440979,16378,0.001,Add,,,,,,,,,,,,,,,,,,,,,
0,0.014823641628026962,0.013553936034440994,0.013344337232410908,7,6,0.0,1.0,11030558,11016716,2158.0234248638153,16455,0.001,Add,0.012753885239362717,0.011940905824303627,0.011265465058386326,,,,,,,,,,,,,,,,,,
0,0.016992349177598953,0.015638431534171104,0.015033004805445671,9,6,0.0,1.0,11044400,11030558,2179.9634416103363,16531,0.001,Add,0.014121838845312595,0.013488623313605785,0.012866191565990448,,,,,,,,,,,,,,,,,,
0,0.03618532419204712,0.033915601670742035,0.03332791477441788,12,12,0.0,1.0,11099732,11044400,2201.3878989219666,16607,0.001,Add,0.03284739702939987,0.03196527063846588,0.029179884120821953,0.028328077867627144,0.027918610721826553,0.027195937931537628,0.02615656703710556,0.02589232288300991,0.025737565010786057,,,,,,,,,,,,
0,0.047623105347156525,0.04691988602280617,0.04625244066119194,14,12,0.0,1.0,11155064,11099732,2222.882574558258,16682,0.001,Add,0.04328083619475365,0.04203737899661064,0.041096944361925125,0.039888493716716766,0.038827329874038696,0.03824182599782944,0.03620029240846634,0.035417284816503525,0.03433651477098465,,,,,,,,,,,,
0,0.0179105494171381,0.017215358093380928,0.01656344346702099,17,24,0.0,1.0,11376320,11155064,2244.2762262821198,16757,0.001,Add,0.016192050650715828,0.0158588495105505,0.015108107589185238,0.014859245158731937,0.01469816267490387,0.014222713187336922,0.013894583098590374,0.013445405289530754,0.01336722169071436,0.01289142481982708,0.012688135728240013,0.012480518780648708,0.012216373346745968,0.011996617540717125,0.011854736134409904,0.011624325066804886,0.011365445330739021,0.011035263538360596,0.010742017067968845,0.010522378608584404,0.010313550941646099
0,0.006385985761880875,0.006222183350473642,0.005967781413346529,19,24,0.0,1.0,11597576,11376320,2266.6514763832092,16831,0.001,Add,0.0059191943146288395,0.00576740363612771,0.005756623577326536,0.005568589549511671,0.005497635342180729,0.005428631789982319,0.005340611562132835,0.0052304924465715885,0.005149435717612505,0.005120219197124243,0.00503408070653677,0.004801453091204166,0.004770009312778711,0.004745158366858959,0.0047065624967217445,0.004674480762332678,0.004625771660357714,0.004546332638710737,0.004445000551640987,0.0043881358578801155,0.004356130957603455
0,0.006919603794813156,0.006613645236939192,0.006166698411107063,2,3,0.0,1.0,11601041,11597576,2288.406482934952,16904,0.001,Add,,,,,,,,,,,,,,,,,,,,,
0,0.00972262304276228,0.008946052752435207,0.008133518509566784,4,3,0.0,1.0,11604506,11601041,2310.0564363002777,16977,0.001,Add,,,,,,,,,,,,,,,,,,,,,
0,0.016856737434864044,0.01527737732976675,0.013917357660830021,7,6,0.0,1.0,11618348,11604506,2331.458768606186,17049,0.001,Add,0.01337328553199768,0.013189389370381832,0.01222540345042944,,,,,,,,,,,,,,,,,,
0,0.019388889893889427,0.017319729551672935,0.015521116554737091,9,6,0.0,1.0,11632190,11618348,2353.4871056079865,17121,0.001,Add,0.014952321536839008,0.014355546794831753,0.013510353863239288,,,,,,,,,,,,,,,,,,
0,0.034926313906908035,0.03300916403532028,0.03154502436518669,12,12,0.0,1.0,11687522,11632190,2375.235503435135,17193,0.001,Add,0.030244585126638412,0.028977269306778908,0.028555316850543022,0.027846157550811768,0.027041535824537277,0.02615821175277233,0.025225406512618065,0.024623245000839233,0.024277716875076294,,,,,,,,,,,,
0,0.04709494113922119,0.04444931074976921,0.04248196631669998,14,12,0.0,1.0,11742854,11687522,2397.173594713211,17264,0.001,Add,0.04071616008877754,0.03953765332698822,0.03830736130475998,0.03684990853071213,0.03548296540975571,0.034419186413288116,0.03389931842684746,0.03309694677591324,0.03246275708079338,,,,,,,,,,,,
0,0.017477242276072502,0.01658773235976696,0.015918169170618057,17,24,0.0,1.0,11964110,11742854,2418.772869825363,17335,0.001,Add,0.015604464337229729,0.01497881580144167,0.014656169340014458,0.01435215212404728,0.014094055630266666,0.01371768768876791,0.013491548597812653,0.013359468430280685,0.012861758470535278,0.012685994617640972,0.01250053383409977,0.012154942378401756,0.011774465441703796,0.011717182584106922,0.011492656543850899,0.01110124122351408,0.01086367480456829,0.010636990889906883,0.0104219364002347,0.010278015397489071,0.009779844433069229
0,0.006294548511505127,0.005963722709566355,0.005736262071877718,19,24,0.0,1.0,12185366,11964110,2442.3677110671997,17405,0.001,Add,0.005596629809588194,0.0054970188066363335,0.00544000556692481,0.005402884446084499,0.005232612602412701,0.00518939271569252,0.005096123553812504,0.005060974042862654,0.004917624406516552,0.00489339092746377,0.004806820303201675,0.004746801685541868,0.004655007738620043,0.004597106482833624,0.004523809999227524,0.004464400466531515,0.004425780847668648,0.004376874305307865,0.004327005706727505,0.0041863820515573025,0.004179599694907665
0,0.007149854674935341,0.006270660553127527,0.0061128451488912106,2,3,0.0,1.0,12188831,12185366,2463.507219552994,17474,0.001,Add,,,,,,,,,,,,,,,,,,,,,
0,0.010274604894220829,0.009288249537348747,0.008296002633869648,4,3,0.0,1.0,12192296,12188831,2486.241811990738,17543,0.001,Add,,,,,,,,,,,,,,,,,,,,,
0,0.014660324901342392,0.013761680573225021,0.012913128361105919,7,6,0.0,1.0,12206138,12192296,2509.2166895866394,17611,0.001,Add,0.0120425745844841,0.011390653438866138,0.010843873955309391,,,,,,,,,,,,,,,,,,
0,0.018103275448083878,0.015763409435749054,0.015647051855921745,9,6,0.0,1.0,12219980,12206138,2532.178748369217,17679,0.001,Add,0.014642678201198578,0.013666988350450993,0.0134300347417593,,,,,,,,,,,,,,,,,,
0,0.03469857946038246,0.03242608159780502,0.03214297816157341,12,12,0.0,1.0,12275312,12219980,2555.8037889003754,17747,0.001,Add,0.03007540851831436,0.029017480090260506,0.02862928807735443,0.027378372848033905,0.026751743629574776,0.026168977841734886,0.02542896196246147,0.024343341588974,0.02373216487467289,,,,,,,,,,,,
0,0.048956215381622314,0.04456784576177597,0.04233282431960106,14,12,0.0,1.0,12330644,12275312,2578.5264201164246,17814,0.001,Add,0.040459275245666504,0.03851766139268875,0.03707162290811539,0.03602995723485947,0.03470858931541443,0.03418360650539398,0.03392060473561287,0.03237845376133919,0.03199586272239685,,,,,,,,,,,,
0,0.017145775258541107,0.016032781451940536,0.015629589557647705,17,24,0.0,1.0,12551900,12330644,2601.222844362259,17881,0.001,Add,0.015313273295760155,0.014770773239433765,0.013950862921774387,0.013721765018999577,0.013332009315490723,0.013230927288532257,0.01253181416541338,0.012502823024988174,0.01238813903182745,0.012247573584318161,0.011928490363061428,0.011643948033452034,0.011242643930017948,0.010975145734846592,0.010749861598014832,0.010683048516511917,0.010387280024588108,0.010161716490983963,0.009855281561613083,0.009786160662770271,0.009629870764911175
0,0.005841448903083801,0.005660657305270433,0.005611443892121315,19,24,0.0,1.0,12773156,12551900,2623.562877893448,17947,0.001,Add,0.0053630699403584,0.005340881180018187,0.005232923198491335,0.005123859737068415,0.0050501832738518715,0.0050209457986056805,0.004875790793448687,0.004810193087905645,0.004719211719930172,0.004684423096477985,0.0046590096317231655,0.00453253835439682,0.00449276203289628,0.00441265944391489,0.004366759676486254,0.004289126023650169,0.004221441689878702,0.0041915844194591045,0.004093165509402752,0.004061405081301928,0.003959303256124258
